digiFm_11_07^1563877711.wav
digifm_11_22^1563877717.wav
digifm_11_39^1563877720.wav
digifm_11_55^1563877768.wav
digifm_16_54^1563879790.wav
digifm_17_06^1563879799.wav
digifm_17_34^1563879806.wav
digifm_22_55^1563879813.wav
digifm_22_59^1563879824.wav
digifm_23_02^1563879830.wav
eurofm_07_32^1563881411.wav
eurofm_07_40^1563884930.wav
eurofm_07_46^1563885236.wav
eurofm_13_00^1563885260.wav
eurofm_13_06^1563956566.wav
eurofm_13_12^1563956597.wav
eurofm_21_15^1563956656.wav
eurofm_21_21^1563956775.wav
eurofm_21_26^1563956807.wav
europafm_21_10^1563956996.wav
guerillaRadio_15_15^1563957129.wav
guerillaRadio_15_26^1563957205.wav
guerillaRadio_15_32^1563957246.wav
guerillaRadio_15_36^1563957409.wav
guerrilla_22_57^1563957419.wav
guerrilla_23_00^1563957546.wav
guerrilla_23_03^1563957602.wav
guerrilla_9_35^1564389290.wav
guerrilla_9_38^1564389303.wav
guerrilla_9_41^1564401883.wav
profm_11_16^1564401931.wav
profm_11_33^1564401953.wav
profm_11_42^1564472989.wav
profm_11_57^1564473141.wav
profm_16_54^1564479800.wav
profm_17_04^1564479847.wav
profm_17_35^1564479867.wav
profm_22_59^1564479891.wav
profm_23_02^1564479917.wav
profm_9_42^1564479958.wav
virginRadio_15_08^1564480035.wav
virginRadio_15_26^1564480056.wav
virginRadio_15_31^1564480369.wav
virginRadio_15_37^1564480420.wav
virginRadio_22_58^1564480440.wav
virginRadio_23_00^1564480486.wav
virginRadio_23_04^1564480503.wav
virginradio_9_34^1576087824.wav
virginradio_9_38^1576088135.wav
virginradio_9_41^1576088170.wav
